…
If you were to get output that had `NA` values for your new variable,
add `na.rm = TRUE` to your window function call
(i.e. `mean(lifeExp, na.rm = TRUE))`.

Now, try this at the country level, calculating the mean life expectancy
*per country* between 1952 and 2007:

``` r
mortality %>%
  group_by(country) %>%
  summarise(avg_lifeExp = mean(lifeExp))
```

    ## # A tibble: 142 × 2
    ##    country     avg_lifeExp
    ##    <fct>             <dbl>
    ##  1 Afghanistan        37.5
    ##  2 Albania            68.4
    ##  3 Algeria            59.0
    ##  4 Angola             37.9
    ##  5 Argentina          69.1
    ##  6 Australia          74.7
    ##  7 Austria            73.1
    ##  8 Bahrain            65.6
    ##  9 Bangladesh         49.8
    ## 10 Belgium            73.6
    ## # … with 132 more rows
…
Now, you try the same functionality but *per country* instead of *per
continent*:

``` r
mortality %>%
  group_by(country) %>%
  summarise(
    records = n(),
    avg_lifeExp = mean(lifeExp),
    med_lifeExp = median(lifeExp),
    sd_lifeExp = sd(lifeExp)    
  )
```

    ## # A tibble: 142 × 5
    ##    country     records avg_lifeExp med_lifeExp sd_lifeExp
    ##    <fct>         <int>       <dbl>       <dbl>      <dbl>
    ##  1 Afghanistan      12        37.5        39.1       5.10
    ##  2 Albania          12        68.4        69.7       6.32
    ##  3 Algeria          12        59.0        59.7      10.3 
    ##  4 Angola           12        37.9        39.7       4.01
    ##  5 Argentina        12        69.1        69.2       4.19
    ##  6 Australia        12        74.7        74.1       4.15
    ##  7 Austria          12        73.1        72.7       4.38
    ##  8 Bahrain          12        65.6        67.3       8.57
    ##  9 Bangladesh       12        49.8        48.5       9.03
    ## 10 Belgium          12        73.6        73.4       3.78
    ## # … with 132 more rows
…
``` r
mortality %>%
  group_by(country) %>%
  summarise(
    records = n(),
    avg_lifeExp = mean(lifeExp),
    med_lifeExp = median(lifeExp),
    sd_lifeExp = sd(lifeExp)    
  ) %>%
  arrange(avg_lifeExp)
```

    ## # A tibble: 142 × 5
    ##    country           records avg_lifeExp med_lifeExp sd_lifeExp
    ##    <fct>               <int>       <dbl>       <dbl>      <dbl>
    ##  1 Sierra Leone           12        36.8        37.6       3.94
    ##  2 Afghanistan            12        37.5        39.1       5.10
    ##  3 Angola                 12        37.9        39.7       4.01
    ##  4 Guinea-Bissau          12        39.2        38.4       4.94
    ##  5 Mozambique             12        40.4        42.3       4.60
    ##  6 Somalia                12        41.0        41.5       4.50
    ##  7 Rwanda                 12        41.5        43.7       6.31
    ##  8 Liberia                12        42.5        42.4       2.42
    ##  9 Equatorial Guinea      12        43.0        42.8       5.60
    ## 10 Guinea                 12        43.2        41.8       7.74
    ## # … with 132 more rows
…
Then, sort high to low:

``` r
mortality %>%
  group_by(country) %>%
  summarise(
    records = n(),
    avg_lifeExp = mean(lifeExp),
    med_lifeExp = median(lifeExp),
    sd_lifeExp = sd(lifeExp)    
  ) %>%
  arrange(desc(avg_lifeExp))
```

    ## # A tibble: 142 × 5
    ##    country     records avg_lifeExp med_lifeExp sd_lifeExp
    ##    <fct>         <int>       <dbl>       <dbl>      <dbl>
    ##  1 Iceland          12        76.5        76.6       3.03
    ##  2 Sweden           12        76.2        75.9       3.00
    ##  3 Norway           12        75.8        75.6       2.42
    ##  4 Netherlands      12        75.6        75.6       2.49
    ##  5 Switzerland      12        75.6        75.8       4.01
    ##  6 Canada           12        74.9        75.0       3.95
    ##  7 Japan            12        74.8        76.2       6.49
    ##  8 Australia        12        74.7        74.1       4.15
    ##  9 Denmark          12        74.4        74.7       2.22
    ## 10 France           12        74.3        74.4       4.30
    ## # … with 132 more rows
…
``` r
mortality %>%
  filter(year >= 1952 & year <= 1992) %>%
  group_by(country) %>%
  summarise(
    records = n(),
    avg_lifeExp = mean(lifeExp),
    med_lifeExp = median(lifeExp),
    sd_lifeExp = sd(lifeExp)
  ) %>%
  arrange(avg_lifeExp)
```

    ## # A tibble: 142 × 5
    ##    country           records avg_lifeExp med_lifeExp sd_lifeExp
    ##    <fct>               <int>       <dbl>       <dbl>      <dbl>
    ##  1 Sierra Leone            9        35.3        35.4       3.35
    ##  2 Afghanistan             9        35.8        36.1       4.74
    ##  3 Angola                  9        36.7        37.9       3.88
    ##  4 Guinea-Bissau           9        37.1        36.5       3.61
    ##  5 Mozambique              9        39.1        40.3       4.56
    ##  6 Somalia                 9        39.3        39.7       3.79
    ##  7 Guinea                  9        39.7        38.8       5.13
    ##  8 Gambia                  9        39.9        38.3       7.91
    ##  9 Mali                    9        40.5        40.0       5.00
    ## 10 Equatorial Guinea       9        40.7        40.5       4.42
    ## # … with 132 more rows
…
``` r
mortality %>%
  filter(year >= 1952 & year <= 1992) %>%
  group_by(country) %>%
  summarise(
    records = n(),
    avg_lifeExp = mean(lifeExp),
    med_lifeExp = median(lifeExp),
    sd_lifeExp = sd(lifeExp)
  ) %>%
  arrange(desc(sd_lifeExp))
```

    ## # A tibble: 142 × 5
    ##    country            records avg_lifeExp med_lifeExp sd_lifeExp
    ##    <fct>                <int>       <dbl>       <dbl>      <dbl>
    ##  1 Oman                     9        53.2        52.1      12.2 
    ##  2 Saudi Arabia             9        54.4        53.9      10.5 
    ##  3 West Bank and Gaza       9        56.3        56.5       9.72
    ##  4 China                    9        58.4        63.1       9.69
    ##  5 Vietnam                  9        52.4        50.3       9.38
    ##  6 Libya                    9        54.8        52.8       9.33
    ##  7 Gabon                    9        49.0        48.7       9.26
    ##  8 Jordan                   9        56.0        56.5       9.23
    ##  9 Tunisia                  9        56.6        55.6       9.06
    ## 10 Indonesia                9        49.6        49.2       8.94
    ## # … with 132 more rows
…
``` r
mortality %>%
  filter(year >= 1997 & year <= 2007) %>%
  group_by(country) %>%
  summarise(
    lifeExp97 = first(lifeExp),
    lifeExp07 = last(lifeExp),
    pct_change = (last(lifeExp)-first(lifeExp))/first(lifeExp)*100
  ) %>%
  arrange(desc(pct_change))
```

    ## # A tibble: 142 × 4
    ##    country          lifeExp97 lifeExp07 pct_change
    ##    <fct>                <dbl>     <dbl>      <dbl>
    ##  1 Rwanda                36.1      46.2      28.1 
    ##  2 Uganda                44.6      51.5      15.6 
    ##  3 Niger                 51.3      56.9      10.8 
    ##  4 Somalia               43.8      48.2       9.96
    ##  5 Burundi               45.3      49.6       9.39
    ##  6 Mali                  49.9      54.5       9.15
    ##  7 Congo, Dem. Rep.      42.6      46.5       9.10
    ##  8 Guinea                51.5      56.0       8.85
    ##  9 Eritrea               53.4      58.0       8.73
    ## 10 Tanzania              48.5      52.5       8.36
    ## # … with 132 more rows
Now, you try this, but over the cold war period from 1952 through 1992:

``` r
mortality %>%
  filter(year >= 1952 & year <= 1992) %>%
  group_by(country) %>%
  summarise(
    lifeExp97 = first(lifeExp),
    lifeExp07 = last(lifeExp),
    pct_change = (last(lifeExp)-first(lifeExp))/first(lifeExp)*100
  ) %>%
  arrange(desc(pct_change))
```

    ## # A tibble: 142 × 4
    ##    country            lifeExp97 lifeExp07 pct_change
    ##    <fct>                  <dbl>     <dbl>      <dbl>
    ##  1 Oman                    37.6      71.2       89.5
    ##  2 Gambia                  30        52.6       75.5
    ##  3 Saudi Arabia            39.9      68.8       72.5
    ##  4 Yemen, Rep.             32.5      55.6       70.8
    ##  5 Vietnam                 40.4      67.7       67.4
    ##  6 Indonesia               37.5      62.7       67.3
    ##  7 Gabon                   37.0      61.4       65.8
    ##  8 Myanmar                 36.3      59.3       63.3
    ##  9 West Bank and Gaza      43.2      69.7       61.5
    ## 10 India                   37.4      60.2       61.1
    ## # … with 132 more rows
…
